119-153-120-2-150-223-76-5-232-182-77-161-131-242-163-78
184-4-163-245-107-158-227-53-92-207-144-177-143-90-170-42
163-43-153-229-102-36-158-148-42-193-228-102-120-225-117-135
116-27-194-55-87-236-25-44-31-94-186-94-48-73-40-132
58-210-6-205-135-140-85-48-193-143-37-137-37-246-141-241
