159-223-178-71-180-249-142-151-184-72-150-54-206-146-168-207
222-123-67-28-110-208-152-168-85-49-223-102-198-222-91-230
88-119-121-233-156-185-155-51-225-197-192-7-254-196-133-206
82-197-145-7-147-127-208-188-15-167-241-237-133-66-4-93
51-21-152-140-91-89-134-126-86-67-71-98-232-168-115-137
218-19-55-175-5-79-87-116-246-115-59-162-182-146-185-155
211-69-137-27-31-203-133-145-81-154-148-180-5-219-37-193
113-70-60-74-153-169-37-195-76-213-131-255-12-156-86-31
75-107-120-108-136-11-65-50-218-223-42-181-102-30-207-190
154-164-250-23-118-94-27-167-0-193-114-247-2-217-209-196
231-67-15-23-239-20-248-74-33-156-75-161-17-204-10-157
7-46-2-137-80-188-184-8-163-223-252-78-249-255-63-120
220-176-192-9-16-120-84-119-109-56-64-244-106-153-236-168
