220-118-36-121-240-174-4-39-140-130-32-105-239-115-30-18
232-99-179-36-232-37-154-192-218-192-190-205-73-75-55-233
169-36-225-22-218-104-141-53-242-90-35-113-80-174-182-184
137-162-176-204-82-36-45-43-43-58-248-39-136-56-131-184
185-103-28-66-77-250-245-130-42-90-66-127-235-155-53-129
240-131-31-134-168-183-195-140-35-0-117-67-48-73-189-97
49-61-7-183-10-122-252-181-171-20-140-159-71-59-98-144
