18-40-165-85-239-89-23-194-132-146-147-248-154-20-185-58
65-190-26-112-158-93-156-234-146-222-133-10-31-250-80-22
54-168-232-86-9-187-46-243-93-77-93-160-9-115-131-237
37-67-118-242-34-184-186-210-130-51-224-148-102-71-115-27
251-66-230-71-205-190-108-236-57-201-32-9-229-80-167-165
