135-42-64-122-188-131-11-254-106-160-168-73-186-167-52-243
20-57-246-247-136-33-181-231-15-238-27-135-129-123-35-187
151-224-246-117-93-51-255-154-251-140-157-22-33-23-164-233
70-89-214-195-165-77-70-179-187-72-69-253-75-41-176-222
84-117-55-244-254-111-183-180-84-192-39-80-116-0-121-88
179-74-246-51-115-130-159-7-203-230-151-248-216-65-99-200
66-100-156-220-211-39-158-139-151-37-171-177-201-234-254-123
161-76-234-1-196-145-89-91-47-144-174-31-115-243-127-27
39-31-182-52-67-145-246-159-93-223-81-143-131-81-113-13
171-219-102-127-207-213-185-141-173-223-178-160-115-54-43-209
191-115-55-226-46-24-18-106-53-235-35-135-116-73-20-220
