250-45-135-232-229-75-51-222-141-133-220-33-88-253-237-244
98-108-149-37-225-170-77-56-111-121-65-30-209-248-142-32
202-183-28-113-198-255-93-186-255-79-26-67-57-202-218-103
193-173-106-125-88-110-93-160-162-201-236-225-233-219-48-141
197-155-115-30-252-69-153-239-97-27-50-246-195-207-225-9
148-247-233-218-40-208-128-181-93-75-106-121-88-152-127-86
165-17-182-222-154-158-104-171-191-82-134-163-132-211-215-8
255-119-19-12-171-115-116-105-16-132-85-231-249-250-198-251
110-82-131-231-45-81-1-200-145-234-86-251-186-86-149-248
95-85-25-98-104-59-3-208-224-102-223-228-103-76-177-164
175-43-41-231-166-173-224-108-250-122-113-23-6-96-196-188
151-27-155-97-201-174-133-47-12-33-111-105-232-142-214-134
