75-98-168-40-237-126-185-210-144-216-87-135-88-8-196-191
213-201-197-66-144-231-6-237-140-165-99-171-4-92-62-237
255-135-58-23-9-52-8-138-129-37-83-39-97-169-52-138
95-102-185-181-227-247-138-49-205-3-16-167-239-166-70-163
244-31-156-165-171-34-31-173-140-86-127-65-79-133-63-109
30-200-37-184-185-231-194-218-129-24-115-219-178-79-236-112
22-135-22-120-220-166-7-74-19-73-58-173-159-207-200-53
