243-111-181-5-20-31-160-101-2-78-2-231-160-251-203-234
180-243-188-121-89-248-105-134-222-91-95-4-7-210-229-223
126-100-124-221-142-34-123-81-9-96-19-228-114-163-120-226
94-53-22-199-228-203-33-14-86-163-175-32-174-238-48-83
5-170-114-1-59-149-151-203-78-68-213-88-153-106-102-248
248-127-253-43-150-115-47-122-108-27-219-212-30-196-159-179
1-211-170-176-24-30-209-134-55-194-123-216-50-234-176-116
207-114-128-192-153-154-142-189-85-132-85-178-78-243-7-170
36-229-241-91-132-169-138-250-117-160-138-61-152-253-229-190
197-74-108-87-201-138-21-49-106-152-114-200-69-164-50-164
85-177-56-11-128-148-8-196-52-248-113-55-57-212-103-103
183-245-43-228-52-168-247-79-86-151-131-5-63-229-166-12
182-25-128-140-209-146-25-96-225-108-230-129-139-240-87-206
13-143-234-227-51-105-77-166-42-47-97-139-209-216-32-115
70-59-248-249-10-135-113-85-40-213-163-212-40-81-114-136
