182-9-182-237-71-149-207-166-103-99-72-128-92-110-71-163
83-181-114-73-246-192-113-147-167-103-173-36-241-64-65-118
112-39-243-142-105-223-186-199-41-40-101-4-245-212-189-143
176-223-252-221-236-51-183-140-177-139-70-43-142-207-29-48
9-60-104-63-174-195-10-64-128-69-105-6-88-95-154-207
193-171-11-242-136-222-187-22-64-56-204-82-138-130-0-86
93-153-189-80-45-166-109-106-6-97-69-109-227-136-32-118
206-152-206-33-9-103-246-69-53-105-85-34-174-62-245-197
38-71-191-23-94-204-113-251-196-113-172-181-152-132-191-164
195-94-105-150-17-1-45-1-129-157-193-179-158-191-244-127
216-64-162-93-124-242-159-159-206-178-248-250-85-240-28-222
176-154-66-128-107-113-3-35-229-219-82-142-216-47-115-119
77-193-96-238-228-225-179-253-57-81-85-15-32-58-81-39
46-0-13-228-32-80-221-130-7-233-166-226-123-65-87-3
185-104-223-242-185-143-105-125-75-88-64-134-209-217-162-206
