144-157-88-199-203-94-162-38-148-103-162-119-146-252-173-63
128-158-229-163-184-55-102-250-64-251-92-5-143-6-83-32
163-172-231-111-10-137-149-158-240-56-21-130-52-195-193-180
97-167-87-25-222-190-19-31-185-112-36-72-118-119-104-25
35-79-136-45-216-30-203-200-86-225-74-138-164-12-62-5
179-150-30-145-84-50-176-13-162-212-85-24-76-190-49-111
