25-236-15-95-216-60-173-227-71-123-208-254-231-107-9-24
28-14-242-187-191-114-11-6-53-40-84-36-186-22-55-39
30-129-95-145-35-229-224-133-63-79-91-222-135-84-142-247
162-2-178-214-246-182-205-192-184-230-44-139-43-109-91-158
210-154-51-2-222-26-114-226-251-72-152-250-191-16-56-149
106-12-123-71-36-33-114-18-126-217-245-209-24-0-14-62
131-124-229-20-24-126-111-97-145-24-51-168-76-98-175-98
106-170-18-150-202-111-145-53-19-115-206-83-166-217-40-157
99-173-177-250-12-25-142-226-72-197-66-108-22-47-55-180
140-171-26-17-117-180-63-123-149-254-150-68-104-240-152-127
188-104-74-159-33-243-232-132-170-201-40-56-70-104-60-198
201-184-107-99-77-163-11-165-3-250-49-20-78-140-42-158
44-86-9-218-36-232-74-35-135-141-52-181-200-110-194-134
218-201-221-184-108-222-247-21-226-89-113-200-120-83-7-80
244-108-179-127-58-244-55-207-223-156-172-80-217-119-103-128
