242-220-32-21-154-103-100-144-246-33-224-116-164-120-209-28
16-133-234-64-74-33-43-167-226-45-218-116-54-233-33-123
91-162-29-153-190-44-88-192-112-212-86-161-157-76-249-135
3-5-161-48-95-141-223-142-201-253-114-55-211-145-160-187
140-102-3-85-146-53-43-120-115-231-110-130-224-137-85-160
196-164-108-179-239-147-72-181-6-156-40-130-60-232-46-127
