169-76-229-224-41-185-144-200-138-92-170-64-163-56-14-149
159-242-79-144-123-198-2-101-119-192-248-52-67-83-57-229
93-223-171-72-184-1-43-146-84-27-148-77-96-245-215-24
57-223-215-190-163-28-137-0-39-107-191-63-168-47-49-35
190-6-53-102-42-26-34-106-116-48-88-40-218-248-240-204
66-68-205-59-157-177-150-82-59-189-241-22-142-252-12-160
132-90-230-226-149-111-231-58-73-49-164-215-206-207-240-151
201-190-52-104-82-97-144-188-212-5-48-46-21-111-133-124
123-7-198-221-141-3-34-224-35-32-191-189-204-231-229-10
231-112-125-8-181-40-31-123-84-65-233-54-194-56-193-154
251-107-23-182-77-252-12-134-38-43-188-190-60-202-83-197
187-77-19-126-190-213-64-229-125-61-91-243-25-203-30-205
174-111-196-33-68-47-29-154-113-59-190-248-209-65-212-69
74-36-133-55-244-160-135-197-151-150-182-98-189-27-103-131
242-198-2-117-12-218-58-169-212-17-101-122-180-226-214-17
148-145-134-68-90-224-48-25-161-36-0-171-28-176-223-209
