149-160-131-104-63-50-221-222-50-65-132-72-118-141-242-199
103-14-172-101-233-189-128-120-194-8-56-243-66-60-145-215
221-20-63-28-70-28-250-120-93-126-192-212-11-179-155-114
193-71-216-170-4-88-34-198-97-90-186-163-151-75-122-116
95-186-144-165-214-138-29-52-9-222-8-20-145-163-135-82
234-95-252-239-183-31-181-24-121-111-187-16-186-54-132-25
240-20-190-198-159-220-250-168-186-2-188-75-165-67-157-144
162-153-127-90-184-52-114-50-164-46-66-94-100-199-120-84
219-54-26-122-18-21-34-204-23-223-23-189-34-180-77-197
78-204-31-6-0-145-56-164-191-123-3-35-66-123-119-29
177-146-152-196-167-186-144-190-153-168-123-188-92-200-129-170
