103-74-157-44-226-218-231-79-76-228-153-177-137-124-24-51
255-62-29-215-72-82-200-176-96-140-213-147-104-66-31-0
18-190-248-112-60-235-226-10-66-54-41-95-122-26-181-138
127-147-144-203-50-2-198-26-225-130-250-148-102-209-185-105
56-233-152-67-179-67-31-50-192-12-138-77-13-3-143-115
70-30-76-48-9-230-3-73-137-242-31-83-166-230-148-106
