216-244-107-30-14-162-11-194-67-111-105-14-38-108-206-21
61-117-173-174-4-13-134-160-89-252-244-106-55-219-181-15
208-33-46-222-195-57-160-6-169-9-20-207-118-226-228-179
87-146-97-92-159-231-252-248-228-240-98-27-204-23-43-156
56-89-122-251-146-27-1-59-36-21-10-154-247-239-77-79
129-175-171-32-150-167-24-122-151-122-150-99-145-193-255-202
