159-157-61-218-199-205-237-119-194-142-174-178-155-101-227-123
133-14-160-190-214-122-150-109-39-15-104-2-145-202-110-25
117-251-64-27-151-67-199-209-202-91-235-114-86-254-72-191
56-2-54-207-45-182-8-254-77-232-164-240-10-32-20-65
248-231-94-78-22-78-110-45-34-35-191-87-7-220-233-130
75-136-194-183-112-96-220-168-155-213-110-140-3-96-240-195
