87-66-62-67-217-192-37-189-152-89-165-94-199-79-40-226
172-191-167-202-36-153-240-240-227-132-56-203-120-162-132-149
185-165-202-140-133-190-230-23-224-92-117-25-77-118-18-17
81-167-206-25-220-81-161-130-242-234-91-139-201-233-241-138
162-222-226-52-126-171-233-100-16-31-207-130-215-139-133-76
130-86-175-140-197-94-204-138-173-23-147-197-188-164-94-91
32-32-139-192-169-179-234-195-39-166-205-46-236-114-245-84
122-70-195-95-198-94-165-238-82-53-104-180-31-48-88-123
118-52-190-236-69-139-109-231-213-59-21-24-200-25-167-72
53-183-116-7-52-152-81-29-57-202-5-235-91-151-132-233
5-37-101-148-76-161-216-96-124-46-196-149-133-26-76-210
5-163-211-37-222-34-225-90-9-231-3-191-223-65-198-24
250-56-111-69-186-6-21-165-193-45-124-58-129-10-79-206
