43-209-232-246-55-75-226-18-239-143-85-4-157-70-59-51
65-129-145-118-44-154-190-144-131-139-179-68-168-93-46-176
161-21-4-43-14-116-242-123-194-172-28-54-239-202-226-166
76-82-240-96-34-1-170-54-118-160-111-191-58-45-62-76
119-61-131-2-238-55-127-70-91-71-41-79-177-69-247-114
33-180-13-213-13-99-123-223-244-14-52-8-187-172-112-200
147-215-164-203-48-209-22-98-68-98-133-136-31-198-45-246
179-214-215-195-70-69-22-67-121-19-202-137-107-98-239-54
8-224-239-225-38-134-123-50-164-222-58-250-15-114-215-145
62-80-20-227-187-206-15-185-168-139-18-153-245-157-218-150
51-50-233-52-229-156-60-200-170-82-65-86-181-26-135-33
26-49-58-197-220-127-37-55-150-180-219-181-154-146-1-98
55-126-121-158-40-234-217-224-143-180-26-234-206-112-65-202
71-0-78-37-79-141-122-205-118-75-189-81-46-156-166-226
217-39-62-2-194-145-16-227-50-11-190-58-234-55-235-81
