134-218-187-66-215-160-207-152-191-44-174-70-188-51-59-45
187-151-45-108-52-208-190-70-158-33-51-132-93-31-238-25
90-129-79-218-157-88-249-157-103-107-12-149-76-5-179-137
167-8-215-34-132-128-111-31-250-190-181-74-58-171-162-67
224-20-198-59-8-205-211-236-236-89-36-79-183-101-48-152
169-15-19-149-119-12-63-249-140-37-246-165-57-37-145-53
13-167-196-236-204-212-119-125-110-112-236-128-62-146-24-121
188-164-192-92-12-12-210-159-122-11-139-23-197-20-45-223
67-244-206-230-117-114-207-72-7-82-139-54-11-159-73-185
115-162-110-54-23-143-218-141-254-55-247-198-170-175-23-201
67-156-75-127-183-87-67-138-250-32-104-129-81-239-59-49
2-216-9-226-48-230-155-7-237-247-193-21-115-228-215-67
