58-94-239-128-75-110-194-208-202-107-234-165-222-218-89-196
33-39-31-133-38-244-225-50-27-213-66-121-62-118-6-93
36-22-178-3-52-211-29-251-159-53-109-185-89-124-94-244
158-223-91-239-174-145-77-10-195-142-43-219-200-9-35-137
26-226-133-125-249-105-166-193-152-3-234-200-22-52-88-95
