184-160-204-161-169-175-195-78-120-98-138-133-78-212-210-166
190-208-195-98-54-19-19-161-103-255-205-207-193-167-24-104
22-115-181-255-106-23-96-137-247-83-122-50-149-220-124-55
226-74-57-25-239-43-224-28-39-236-186-31-39-218-3-88
10-162-183-182-178-184-28-39-10-223-27-47-16-87-150-231
236-165-96-202-196-103-134-5-148-97-19-42-69-116-255-179
88-0-201-27-241-74-99-95-100-61-6-9-134-244-132-144
222-83-194-163-242-235-134-197-109-152-165-94-8-78-141-129
