43-112-162-136-150-66-99-237-150-17-47-94-17-245-203-129
211-68-166-4-179-91-4-176-178-231-20-215-223-17-44-136
8-8-83-76-156-197-97-83-29-251-197-237-67-90-131-84
188-251-144-164-196-166-228-70-78-154-73-126-78-203-54-118
106-213-165-35-72-22-207-124-210-67-190-65-47-141-234-73
250-192-14-107-120-240-227-254-75-219-78-202-85-48-12-209
115-113-242-22-152-191-217-147-197-210-226-51-2-31-137-44
118-9-95-32-234-62-18-72-219-9-69-115-155-31-112-28
7-244-85-114-99-46-220-121-197-43-255-23-201-214-48-112
101-211-83-134-194-117-90-160-69-84-135-63-246-165-104-220
24-4-49-168-164-17-16-183-248-88-88-22-195-192-119-102
133-18-15-142-87-88-250-196-109-54-119-131-79-44-172-5
79-29-183-38-189-215-109-100-242-64-172-230-194-78-120-7
211-251-214-230-195-206-254-48-57-194-71-87-83-65-168-48
205-227-22-173-104-129-27-35-1-47-253-144-30-163-232-1
