104-6-4-67-216-151-105-36-145-68-68-120-194-31-201-21
48-145-178-171-80-205-77-182-91-63-176-4-124-7-94-222
245-146-119-26-230-173-162-78-120-156-155-67-174-60-65-204
29-91-222-186-211-248-147-94-239-76-231-84-23-167-3-29
54-55-117-86-15-123-80-107-61-33-222-180-223-241-81-235
82-33-95-137-108-3-191-118-203-86-51-131-189-222-137-98
