115-59-209-125-86-46-3-223-129-218-225-39-165-91-68-134
59-31-106-20-137-200-132-96-20-229-104-190-187-223-222-8
98-167-26-91-137-46-75-39-80-28-57-34-27-157-250-128
139-194-165-213-139-19-109-37-182-45-13-252-30-203-102-126
187-61-219-20-67-84-207-137-14-236-199-217-201-221-195-100
204-40-67-233-196-116-19-239-179-158-36-237-140-245-195-149
59-144-98-100-39-215-228-179-18-31-119-102-213-212-112-102
